[
    {
      "name": "Agliè (TO)"
    },
    {
      "name": "Ala di Stura (TO)"
    },
    {
      "name": "Airasca (TO)"
    },
    {
      "name": "Albiano d'Ivrea (TO)"
    },
    {
      "name": "Almese (TO)"
    },
    {
      "name": "Alpette (TO)"
    },
    {
      "name": "Alpignano (TO)"
    },
    {
      "name": "ashthtgy"
    }
  ]